{
  "appName": {
    "message": "identify-problematic-extension",
    "description": "The name of the extension."
  },
  "appDescription": {
    "message": "Cross browser extensions with super cool functionality",
    "description": "Early stage startup looking for funding"
  }
}
